{
	"ImportPath": "bitbucket.org/fernandezpablo85/lagone",
	"GoVersion": "go1.2",
	"Packages": [
		"./..."
	],
	"Deps": [
		{
			"ImportPath": "github.com/agtorre/gocolorize",
			"Comment": "v1.0.0",
			"Rev": "f42b554bf7f006936130c9bb4f971afd2d87f671"
		},
		{
			"ImportPath": "github.com/revel/revel",
			"Comment": "v0.12.0-1-g83c6204",
			"Rev": "83c62046c726f36daec7a28a335521f94b2561a6"
		},
		{
			"ImportPath": "github.com/robfig/config",
			"Rev": "0f78529c8c7e3e9a25f15876532ecbc07c7d99e6"
		},
		{
			"ImportPath": "github.com/robfig/pathtree",
			"Rev": "41257a1839e945fce74afd070e02bab2ea2c776a"
		},
		{
			"ImportPath": "golang.org/x/net/websocket",
			"Rev": "6460565bec1e8891e29ff478184c71b9e443ac36"
		},
		{
			"ImportPath": "gopkg.in/fsnotify.v1",
			"Comment": "v1.2.0",
			"Rev": "96c060f6a6b7e0d6f75fddd10efeaca3e5d1bcb0"
		}
	]
}
